
{
  "changePassword": "Cambia la contraseña",
  "logout": "Cerrar sesión",
  "settings": "Ajustes",
  "currentPassword": "Contraseña actual",
  "newPassword": "Nueva contraseña",
  "newPasswordAgain": "Repita nueva contraseña ",
  "save": "Guardar",
  "dashboard": "Tablero",
  "people": "Gente",
  "reports": "Informes",
  "calendar": "Programación",
  "createWorkout": "Publicar entrenamiento",
  "news": "Mensajes",
  "activeMembers": "Miembros activos",
  "sessionsPacks": "Paquetes de sesión",
  "membershipSuspended": "Suscripción suspendida",
  "membershipExpiring": "Bajas",
  "notShowedUpThisWeek": "Ausente más de una semana",
  "openLeads": "Clientes potenciales abiertos",
  "trainingToday": "ESTÁN ENTRENANDO HOY",
  "birthdayToday": "HOY CUMPLEN AÑOS",
  "leadsTurnedToMembersAtLast30Days": "Potenciales abiertos - este mes",
  "leads": "Clientes potenciales",
  "members": "Miembros",
  "coaches": "Entrenadores",
  "yourBoxInNumbers": "Tu caja en números",
  "totalActiveMembers": "Miembros activos totales",
  "search": "Buscar",
  "firstName": "Nombre",
  "lastName": "Apellidos",
  "location": "Población",
  "phone": "Teléfono",
  "status": "Estado",
  "source": "Procedencia",
  "lastModified": "Última modificación",
  "leadName": "Nombre principal",
  "email": "Correo electrónico",
  "activityLog": "Registro de actividad",
  "attendance": "Asistencia",
  "date": "Fecha",
  "comment": "Comentario",
  "class": "Clase",
  "deleteLead": "Eliminar clientes potenciales",
  "markAsLost": "Marcar como perdido",
  "editLead": "Editar clientes potenciales",
  "convertToMember": "Convertir a miembro",
  "comments": "Comentarios",
  "close": "Cerrar",
  "done": "Hecho",
  "addNewStatus": "Añadir nuevo estado",
  "addNewSource": "Añadir nueva procedencia",
  "addNew": "Añadir nuevo",
  "name": "Nombre",
  "add": "Añadir",
  "active": "Activar",
  "suspend": "Suspender",
  "membershipType": "Tipo de socio",
  "startDateMembership": "Fecha de inicio de suscripción",
  "endDateMembership": "Fecha de fin de suscripción",
  "price": "Precio",
  "birthday": "Cumpleaños",
  "height": "Altura (cm)",
  "weight": "Peso (kg)",
  "male": "Hombre",
  "female": "Mujer",
  "address": "Dirección",
  "city": "Ciudad",
  "country": "Num. Cuenta IBAN",
  "medicalCertificate": "Certificado médico",
  "injuries": "Lesiones",
  "userProfile": "Perfil de usuario",
  "athleteDetails": "Información personal",
  "gender": "Género",
  "resetPassword": "Restablecer contraseña",
  "deactivateUser": "Desactivar usuario",
  "activateUser": "Activar usuario",
  "deleteUser": "Eliminar usuario",
  "editUser": "Editar usuario",
  "start": "Iniciar",
  "end": "Finalizar",
  "totalSuspendedDays": "Días de suspensión totales",
  "membershipActivity": "Actividad de la suscripción",
  "action": "Acción",
  "renew": "Renovar",
  "suspension": "Suspensión",
  "cancel": "Cancelar",
  "editDates": "Editar fechas",
  "cancelSuspension": "Cancelar suspensión",
  "note": "Nota",
  "membershipCreated": "Socios creados",
  "startDate": "Fecha de inicio",
  "endDate": "Fecha de fin",
  "membershipCanceled": "Suscripción cancelada",
  "membershipDatesChanged": "Fechas de suscripción cambiadas",
  "membershipSuspendedFor": "Suscripción suspendida por",
  "days": "días",
  "until": "hasta",
  "becauseOf": "porque",
  "suspensionCanceled": "Suspensión cancelada",
  "cancelMembership": "Cancelar",
  "cancelSuspend": "Cancelar suspensión de socio",
  "cancelReason": "Cancelar motivo",
  "suspendReason": "Motivo de suspensión",
  "totalDays": "Días totales",
  "backDate": "Último día de suspensión",
  "documentType": "Tipo de documento",
  "documentDate": "Fecha de documento",
  "documentTime": "Hora del documento",
  "amount": "Cantidad",
  "showInvoice": "Mostrar factura",
  "k": "Recibos diferidos",
  "h": "Reembolso",
  "-": "Recibo",
  "visitsLastWeek": "Visitas última semana",
  "weeklyAverage": "Media semanal",
  "lastSeen": "Último visto",
  "seachBySkill": "Buscar por habilidad",
  "rm1": "RM1",
  "shoulderPress": "Press de hombros",
  "backSquat": "Sentadilla sobre la espalda - Back Squat",
  "frontSquat": "Sentadilla frontal - Front squat",
  "overheadSquat": "Sentadilla sobre la cabeza - Overhead Squat",
  "deadlift": "Peso muerto",
  "pushPress": "Push Press",
  "snatch": "Arrancada",
  "benchPress": "Press de banca",
  "clean": "Clean",
  "jerk": "Jerk",
  "cleanJerk": "Clean & Jerk",
  "addNewCoachEditCoach": "Añadir/Editar nuevo usuario",
  "usersAttendance": "Asistencia",
  "membershipExpired": "Suscripciones vencidas",
  "notShowedUp": "Ausencia",
  "usersCancelledSchedulesAtLast90Days": "Cancelación de reserva",
  "leadsConvertedToMembersAtLast30Days": "Clientes potenciales convertidos",
  "leadsAttendance": "Clases de prueba",
  "birthdays": "Cumpleaños",
  "usersTrainingToday": "Usuarios entrenando hoy",
  "membershipExpiringUsers": "Vencimiento de suscripciones",
  "membershipExpiredUsers": "Usuarios con la suscripción vencida",
  "membershipSuspendedUsers": "Miembros con suscripción suspendida",
  "usersNotShowedThisWeek": "Ausente esta semana",
  "userScheduleCancellation": "Cancelaciones de reserva de usuarios",
  "sessionPacks": "Paquetes de sesiones",
  "leadConvertedReport": "Clientes potenciales convertidos",
  "todayBirthdays": "Cumpleaños de hoy",
  "time": "Hora",
  "workout": "Rutina de entrenamiento",
  "total": "Total",
  "expiringDate": "Fecha de caducidad",
  "expiredDate": "Fecha de vencimiento",
  "suspendedTill": "Suspendido hasta",
  "scheduleDate": "Fecha de programación",
  "scheduleTime": "Hora de programación",
  "registerTime": "Hora de registro",
  "cancelTime": "Hora de cancelación",
  "cancelledHours": "Horas canceladas",
  "sessionsLeft": "Sesiones restantes",
  "totalSessions": "Sesiones totales",
  "convertedDate": "Fecha de conversión",
  "all": "Todos",
  "searchForFirstName": "Buscar por nombre",
  "searchByName": "Buscar por nombre",
  "searchByPeriod": "Buscar por periodo",
  "searchForLastName": "Buscar por apellido",
  "searchEndDate": "Buscar fecha de finalización",
  "searchSuspendDays": "Buscar días retenidos",
  "searchForTime": "Buscar por hora",
  "searchForWorkout": "Buscar por rutina de entrenamiento",
  "searchForPhone": "Buscar por teléfono",
  "searchForExpiringDate": "Buscar por fecha de caducidad",
  "searchForExpiredDate": "Buscar por fecha vencida",
  "searchForLastSeen": "Buscar por última vez visto",
  "searchForScheduleTime": "Buscar por hora de clase",
  "searchForRegisterTime": "Buscar por hora de reserva",
  "searchForCancelTime": "Buscar por hora de cancelación",
  "searchForCancelledHours": "Buscar por horas canceladas",
  "searchForSessionsLeft": "Buscar por horas restantes",
  "searchForTotalSessions": "Buscar por total de sesiones",
  "searchConvertDate": "Buscar por fecha de conversión",
  "searchForBirthday": "Buscar por cumpleaños",
  "hour": "Hora de inicio",
  "coach": "Entrenador",
  "registered": "Reservado",
  "standby": "En espera",
  "addWorkout": "Publicar rutina de entrenamiento",
  "cloneWeek": "Clonar semana",
  "addNewClass": "Añadir nueva clase",
  "coachName": "Nombre del entrenador",
  "repeatOn": "Repetir en",
  "startHour": "Hora de inicio",
  "endHour": "Hora de fin",
  "sunday": "Domingo",
  "monday": "Lunes",
  "tuesday": "Martes",
  "wednesday": "Miércoles",
  "thursday": "Jueves",
  "friday": "Viernes",
  "saturday": "Sábado",
  "sundayShort": "D",
  "mondayShort": "L",
  "tuesdayShort": "M",
  "wednesdayShort": "X",
  "thursdayShort": "J",
  "fridayShort": "V",
  "saturdayShort": "S",
  "min": "Mínimo requerido",
  "max": "Máx",
  "hoursBefore": "horas antes de la clase",
  "enableRegistration": "Habilitar reserva desde",
  "disableCancellation": "Permitir cancelar la reserva hasta",
  "classRequired": "Clase requerida",
  "section": "Sección",
  "type": "Tipo",
  "skill": "Habilidad",
  "reps": "Repeticiones",
  "rxMale": "RX Hombre",
  "rxFemale": "RX Mujer",
  "updateWorkout": "Actualizar rutina de entrenamiento",
  "addNewsEditNews": "Añadir nuevos/Editar nuevos",
  "accountDetails": "Detalles de la cuenta",
  "manager": "Gerente",
  "membershipTypes": "Todos los clientes activos",
  "periodSession": "Período/Sesión",
  "addNewPlan": "Añadir nuevo plan",
  "addNewSessionPack": "Añadir nuevo paquete de sesión",
  "period": "Período",
  "weeks": "Semanas",
  "months": "Meses",
  "years": "Años",
  "unlimited": "Ilimitado",
  "limited": "Limitado",
  "classes": "Clases",
  "times": "Frecuencia",
  "hours": "Horas",
  "day": "Días",
  "week": "Semana",
  "month": "Mes",
  "year": "Año",
  "noExpiration": "Sin caducidad",
  "expirationPeriod": "Período de vencimiento",
  "numberOfSessions": "Número de sesiones",
  "leadCreated": "Cliente potencial creado",
  "areYouSure": "¿Estás seguro/a?",
  "dismissLeadFromClub": "Estás a punto de marcar este cliente potencial como perdido. Significa que ya no aparecerá en el informe de Clientes potenciales abiertos. ¿Estás seguro de que quieres continuar?",
  "iAmSure": "¡Sí! Estoy seguro/a",
  "iRegret": "No",
  "canceled": "Cancelado",
  "leadUpdated": "Cliente potencial actualizado",
  "userCreated": "Usuario creado",
  "fillThisField": "Por favor rellene este campo",
  "userMembershipUpdated": "Suscripción de usuario actualizada",
  "noteAdded": "Nota añadida",
  "userSuspended": "Retenido/a",
  "emailExists": "El correo electrónico existe en el sistema, por favor contáctenos en support@arboxapp.com",
  "maxAtheletsCantBeBigger": "El número mínimo de atletas no puede ser mayor que el número máximo de atletas",
  "trainingUpdated": "Detalles de clase actualizados",
  "unactiveUserCantRegisterToWorkouts": "El miembro está inactivo, no puede ser registrado en clases",
  "suspendedUserCantRegisterToWorkouts": "La suscripción está retenida durante esta fecha, ¿está seguro de que desea reservar la clase de todos modos?",
  "limitedTimeUserCantRegisterToWorkout": "La suscripción está limitada a clases entre horas específicas, ¿estás seguro de que quieres realizar la reserva de todos modos? Solo se le permite registrarse entre:",
  "classExcluded": "La suscripción no admite reservas en este tipo de clase de acuerdo con los términos de su vinculación, ¿está seguro de que quiere reservar de todos modos? ",
  "limitedTimes": "El miembro ha superado el límite de reservas de acuerdo con su suscripción, ¿está seguro de que quiere reservar de todos modos? Se le permite reservar sólo ",
  "fillClassField": "por favor, rellene el campo Clase",
  "workoutCreated": "Rutina creada",
  "workoutUpdates": "Rutina actualizada",
  "cannotEditWorkout": "No puedes editar un entrenamiento en el día del entrenamiento.",
  "makeSureYouFillInTheSectionField": "Asegúrate de rellenar el campo Sección",
  "makeSureYouFillInAllTheTotalTimeField": "Asegúrese de completar todo el campo de Tiempo total",
  "makeSureYouFillInTheSkillField": "Asegúrate de completar el campo Habilidad",
  "makeSureYouFillInAllTheTotalRoundsField": "Asegúrate de rellenar todos los campos de Rondas totales",
  "error": "Error",
  "makeSureYouFillInTheTypeField": "Asegúrate de rellenar el campo Tipo",
  "youCantFillOnlyOneOfTheFieldInTheHoursSection": "No puedes llenar solo uno de los campos en la sección Horas",
  "youWillDeleteThisMembershipTypeFromYourSystem": "Eliminarás este tipo de suscripción de tu sistema",
  "membershipTypeDeletedFromYourBox": "Tipo de suscripción eliminado de su cuadro",
  "failedToDeleteMembershipType": "Error al eliminar el tipo de suscripción, por favor intente de nuevo",
  "yourStartTimeCannotAfterEndTime": "Su hora de inicio no puede ser posterior a la hora de finalización.",
  "searchForDate": "Buscar por fecha",
  "addNewLeadEditLead": "Añadir nuevo cliente potencial/Editar cliente potencial",
  "yes": "SI",
  "no": "NO",
  "addNewMemberEditMember": "Añadir nuevo miembro/Editar miembro",
  "warning": "Advertencia",
  "revive": "Reactivar cliente potencial",
  "reviveLeadFormClud": "Reactivarás este cliente potencial en tu club",
  "leadProfile": "Perfil de cliente potencial",
  "success": "Éxito",
  "leadIsMarkedAsLost": "El cliente potencial está marcado como perdido",
  "somethingWentWrongPleaseTryAgain": "Algo salió mal. Por favor, vuelva a intentarlo",
  "leadRevived": "Cliente potencial reactivado!",
  "leadRemoved": "El cliente potencial está eliminado!",
  "wrongInput": "Entrada incorrecta",
  "yourStartDateCannotBeAfterTheEndDate": "Su fecha de inicio no puede ser posterior a la fecha de finalización.",
  "thisEmailExistsPleaseContactUs": "Este correo electrónico ya existe en nuestro sistema, contáctenos en support@arboxapp.com para obtener ayuda",
  "finance": "Finanzas",
  "category": "Clase",
  "required": "Requerido",
  "toPDF": "Exportar a PDF",
  "method": "Método",
  "transactionDate": "Fecha de transacción",
  "transactionId": "Identificador de transacción",
  "item": "Artículo",
  "membershipDetails": "Socio y compras",
  "from": "Desde",
  "editSessions": "Editar sesiones",
  "payments": "Pagos",
  "checkedIn": "Registrado",
  "performance": "Actuación",
  "searchBySkill": "Buscar por habilidad",
  "rounds": "Rutinas",
  "extraReps": "Repeticiones extra",
  "pleaseCheckCurrentMembershipStartEndDate": "Por favor, compruebe que la suscripción actual tiene fecha de inicio y finalización",
  "pleaseCheckCurrentMembershipNotFinished": "Por favor, compruebe que la suscripción actual no está finalizada.",
  "youCanNotCancelSuspensionOnUserNotSuspended": "No puedes cancelar la espera de un usuario que no está retenido.",
  "youCanNotEditSessionsNonSessionMembershipUser": "No puedes editar las sesiones restantes de un miembro que no tiene suscripción a un paquete de sesiones",
  "pleaseFillSesionsLeft": "Por favor, complete el campo de Sesiones restantes",
  "sessionsEditedAdded": "Sesiones restantes editadas",
  "userMembershipDatesUpdated": "Fechas de suscripción actualizadas correctamente",
  "pleaseFillText": "Por favor, complete el texto...",
  "pleaseEnterDateFormatDDMMYYYY": "Por favor, ingrese la fecha en formato dd-mm-YYYY",
  "pleaseEnterMembershipType": "Por favor, ingrese el tipo de suscripción",
  "ifYouFillStartDateYouHaveAlsoFillEndDate": "Si completa la fecha de inicio, también debe completar la fecha de finalización.",
  "startDateCanNotBeAfterTheEnd": "La fecha de inicio no puede ser después del final.",
  "userUpdated": "¡Suscripción actualizada!",
  "youWillDeactivateAthlete": "Estás a punto de desactivar esta suscripción, significa que ya no podrá reservar clases ni ver nada sobre tu instalación, ¿estás seguro de que deseas continuar?",
  "userDeactivated": "¡Usuario desactivado con éxito!",
  "youWillResetAthletePassword": "Se enviará una nueva contraseña al correo electrónico del usuario, ¿está seguro de que desea enviarla?",
  "resetPasswordFor": "Nueva contraseña enviada a ",
  "succeeded": "Con éxito",
  "youWillActivateAthlete": "Este usuario se activará, ¿estás seguro de que quieres continuar?",
  "userActivated": "¡Usuario activado correctamente!",
  "youWillDeleteAthleteFromSystem": "La suscripción se eliminará de su sistema, esta acción no se puede deshacer. Le recomendamos que no elimine usuarios, sino que los desactive, ¿está seguro de que desea eliminarlo de todos modos?",
  "userDeletedFromClud": "La suscripción se ha eliminado de su sistema",
  "filter": "Filtro",
  "to": "A",
  "youWillDeleteTrainingCalendar": "Esta clase se eliminará de su horario, ¿está seguro de que desea continuar?",
  "trainingDeletedFromCalendar": "La clase fue eliminada de su horario con éxito",
  "youWillDeleteAthleteTraining": "Este socio/cliente potencial se eliminará de esta clase, ¿está seguro de que desea continuar?",
  "athleteDeletedTraining": "Socio/Cliente potencial se eliminó de la clase correctamente",
  "trainingsCloned": "El horario de esta semana ha sido clonado con éxito",
  "workoutAddedToCalendar": "Esta clase ha sido agregada al horario correctamente.",
  "maxAthletesCannotBeSmallerThenMinAthletes": "El número máximo de participantes no puede ser menor que el número mínimo de participantes",
  "addNewCategory": "Añadir nuevo tipo de clase",
  "users": "Usuarios",
  "searchUserYouWantAddToCurrentWorkout": "Encuentre el usuario al que desea reservar la clase y haga clic en añadir",
  "edit": "Editar",
  "editing": "Editando",
  "cloneThisWeekScheduleNext": "Clona el horario de esta semana para la próxima.",
  "searchForItem": "Buscar por artículo",
  "SearchForAmount": "Buscar por cantidad",
  "expenses": "Gastos",
  "incomes": "Ingresos",
  "youWillDeleteThisTransaction": "Eliminará esta transacción",
  "transactionDeleted": "Transacción eliminada",
  "transactionNotDeletedPleaseTryAgain": "Transacción no eliminada, por favor inténtelo de nuevo",
  "newPayment": "Nuevo pago",
  "youAreTryingAddWorkoutAndDontHaveSchedule": "Está intentando agregar un entrenamiento y no tiene ningún horario, por favor pase a la página del calendario y cree el horario primero.",
  "sectionWasAdded": "Se añadió la sección",
  "sets": "Sets",
  "messageDeletedFromYourBox": "Mensaje eliminado de su sistema",
  "newsUpdated": "Mensaje actualizado",
  "pleaseFillSomeText": "Por favor, complete el texto",
  "newsAddedToYourBox": "Mensaje añadido a su sistema y enviado a sus clientes.",
  "searchByNews": "Buscar por texto",
  "by": "Por",
  "userIsNotConnectedToAnyMembership": "El usuario no está conectado a ningún socio, por favor vuelva a verificar",
  "membershipTypeUpdated": "Tipo de socio actualizado",
  "errorInUpdatingMembershipType": "Error al actualizar el tipo de socio, por favor contáctenos",
  "membership": "Suscripción",
  "alreadyExists": "ya existe",
  "youCantExcludeAllCategories": "No puede excluir todas las clases",
  "membershipTypeAdded": "Tipo de suscripción añadido",
  "errorAddingMembershipType": "Error al añadir el tipo de suscripción, por favor contáctenos",
  "plan": "Plan",
  "addSessionsPack": "Añadir nuevo paquete de sesiones",
  "addNewSessionsPackEditSessionsPack": "Añadir nuevo paquete de sesiones/Editar paquete de sesiones",
  "timesPer": "veces por",
  "asLead": "Como cliente potencial",
  "leadActivity": "Actividad como cliente potencial",
  "expiredSessionPacks": "Paquetes de sesión caducados",
  "membershipCancelled": "Suscripción cancelada",
  "searchForStatus": "Buscar por estado",
  "personalId": "Número ID",
  "additionalPhone": "Número adicional",
  "nonActiveMembers": "Miembros inactivos",
  "languages": "Idiomas",
  "attendanceAsLead": "Asistencia como cliente potencial",
  "thereAreOtherTrainings": "¡Atención! Ya hay entrenamientos en las semanas que estás clonando, puede que se dupliquen las clases. ¿Estás seguro de que quieres continuar?",
  "coachDetails": "Detalles de usuario",
  "coachWorkouts": "Entrenamientos del monitor/entrenador",
  "editCoach": "Editar usuario",
  "deleteCoach": "Eliminar usuario",
  "activateCoach": "Activar usuario",
  "deactivateCoach": "Desactivar usuario",
  "convertCoachToMember": "Convertir usuario a miembro",
  "youWillChangeThisCoachToUser": "Vas a convertir este usuario a miembro, ¿estás seguro?",
  "coachConvertedToUser": "¡Usuario convertido a miembro!",
  "convertMemberToCoach": "Convertir miembro a entrenador",
  "youWillChangeThisMemberToCoach": "Vas a convertir este miembro a entrenador, ¿estás seguro?",
  "memberConvertedToCoach": "Miembro convertido a entrenador",
  "searchForRegisteredAmount": "Búsqueda de cantidad registrada",
  "searchForCheckedInAmount": "Búsqueda de cantidad facturada",
  "currency": "(EUR)",
  "addEditPlan": "Añadir nuevo plan/Editar plan",
  "createdAt": "Creado en",
  "restrictUser": "Restringir reserva desde aplicación",
  "unRestrictUser": "No restringir reserva desde aplicación",
  "youWillRestrictAthlete": "Esto restringirá a este miembro la reserva de clases desde las aplicación móvil, ¿está seguro de que desea continiuar?",
  "youWillUnRestrictAthlete": "Habilitará de nuevo a este usuario a realizar reservas de clases desde la aplilcación móvil, ¿está seguro de que desea continiuar?",
  "restrictedMembers": "Miembros restringidos",
  "coachesSchedules": "Horario de entrenadores",
  "editUserSessions": "Editar sesiones de miembros",
  "searchForCancelHours": "Buscar horas canceladas",
  "registeredUsers": "Miembros reservados",
  "checkedInUsers": "Miembros registrados",
  "searchForSource": "Buscar fuente",
  "cancelDate": "Cancelar fecha",
  "cancelComment": "Cancelar observación",
  "searchForReason": "Buscar razón",
  "searchForComment": "Buscar observación",
  "searchForSuspendedDays": "Buscar días retenidos",
  "sessionsPunched": "Sesiones gastadas",
  "packType": "Tipo de paquete",
  "searchForPackType": "Buscar tipo de paquete",
  "tasks": "Tareas",
  "searchForEmail": "buscar email",
  "addNewTaskEditTask": "Añadir nueva tarea / Editar tarea",
  "taskType": "Tipo de tarea",
  "reminderDate": "Fecha de recordatorio",
  "reminderHour": "Hora de recordatorio",
  "youWillDeleteThisTask": "Esta tarea se eliminará del sistema, ¿está seguro de que desea continuar?",
  "taskDeleted": "La tarea fue eliminada con éxito",
  "taskDescription": "Descripcción de tareas",
  "addNewTaskType": "Añadir tipo",
  "expiring": "Venciendo",
  "leadsConverted": "Clientes potenciales convertidos",
  "reminderTime": "Hora de recordatorio",
  "taskDoneTime": "Tiempo completado",
  "delete": "Eliminar",
  "customDates": "Fechas personalizadas",
  "laseSevenDays": "Últimos 7 días",
  "yesterday": "Ayer",
  "tomorrow": "Mañana",
  "today": "Hoy",
  "todayTasks": "Tareas de hoy",
  "totalOpenTasks": "Tareas totales",
  "todayClasses": "Clases de hoy",
  "totalTraining": "Entrenamiento total",
  "accountSettings": "Configuración de cuenta",
  "language": "Idioma",
  "timezone": "Zona horaria",
  "membershipPlans": "Planes de socio",
  "leadStatuses": "Estados de cliente potencial",
  "leadSources": "Fuentes de cliente potencial",
  "classesTypes": "Tipos de clase",
  "taskTypes": "Tipos de tarea",
  "searchArbox": "Arbox Search",
  "makeSureYouFillInCategoryField": "Asegúrese de rellenar el campo clase",
  "makeSureYouFillInDateFieldFormatDDMMYYYY": "Asegúrese de completar el campo fecha con formato DD-MM-YYYY",
  "makeSureYouFillInSectionField": "Asegúrese de rellenar el campo sección",
  "makeSureYouFillInTypeField": "Asegúrese de completar el campo tipo",
  "makeSureYouFillInSkillField": "Asegúrese de rellenar el campo habilidad",
  "makeSureYouFillInAllTotalRoundField": "Asegúrese de rellenar el campo Rondas totales.",
  "makeSureYouFillInAllTotalTimeField": "Asegúrese de rellenar el campo Tiempo total.",
  "makeSureYouFillInAllRepsField": "Asegúrese de rellenar el campo Repeticiones totales.",
  "coachUpdates": "Detalles de usuario actualizados correctamente.",
  "startDateCannotBeAfterEndDate": "La fecha de inicio no puede ser posterior a la fecha de finalización. Por favor, solucionelo. ",
  "userCreatedMailWithDetailsWasSent": "El socio ha sido creado con éxito. Se ha enviado un correo electrónico con contraseña y enlace para la aplicación móvil.",
  "emailAlreadyExistsPleadeContactUs": "El correo electrónico ya existe en nuestro sistema, contáctenos en support@arboxapp.com para obtener más información.",
  "userMembershipCancelled": "Suscripción cancelada correctamente",
  "userMembershipSuspended": "En espera",
  "userMembershipRenewed": "Nueva suscripción actualizada con éxito.",
  "userMembershipSessionsUpdated": "El importe de las sesiones restantes se actualizó correctamente.",
  "userMembershipSuspendedCancelled": "La espera ha sido cancelada con éxito",
  "deleteLeadWarningText": "Estás a punto de eliminar del sistema al cliente potencial. Esta acción no se puede desahcer, ¿estás seguro de que quieres continuar?",
  "totalSessionsAmount": "Cantidad total de sesiones:",
  "notShowedUpReport": "No Mostrar",
  "sessionsPacksSettings": "Tipos de paquetes de sesiones",
  "searchNews": "Buscar novedades",
  "updatedAt": "Actualizado en",
  "lostLeads": "Clientes potenciales perdidos",
  "lostDate": "Fecha perdida",
  "addCommentToDismissLead": "Observación",
  "activeMembersReport": "Miembros activos",
  "createMember": "Añadir nuevo miembro",
  "createLead": "Añadir nuevo cliente potencial",
  "createNews": "Publicar un mensaje",
  "createTask": "Añadir nueva tarea",
  "addWorkoutType": "Añadir tipo de clase",
  "addLeadSource": "Añadir fuente de cliente potencial",
  "addLeadStatus": "Añadir estado de cliente potencial",
  "addTaskType": "Añadir tipo de tarea",
  "leadSource": "Fuente de cliente potencial",
  "leadStatus": "Estado de cliente potencial",
  "addPlan": "Añadir nuevo plan",
  "cancelled": "La acción está cancelada",
  "doneTask": "Realizado",
  "taskCreatedSuccessfully": "¡La tarea ha sido creada correctamente!",
  "allowedCategory": "Tipos de clase permitidos",
  "noTasksTodayText": "No hay tareas para estas fechas",
  "sendWelcomeMail": "¿Enviar \"Mail de bienvenida\" al cliente?",
  "goToProfile": "Perfil",
  "markTaskAsUndone": "Marcar la tarea como no completada",
  "markTaskAsDone": "Marcar la tarea como completada",
  "deleteTask": "Eliminar la tarea",
  "toDateMissedMembers": "Última visita antes de:",
  "activeMembersDashboard": "Miembros activos",
  "editSessionPack": "Editar",
  "editMembershipType": "Editar",
  "editTaskType": "Editar",
  "editLeadStatus": "Editar",
  "editLeadSource": "Editar",
  "editCategory": "Editar",
  "removeNews": "Editar",
  "editNews": "Editar",
  "addworkout": "Añadir clase",
  "totalessions": "Fuera de",
  "totalTime": "Tiempo",
  "documentsRivhit": "Documentos",
  "receiptRivhit": "Recibos",
  "passwordResetSuccess": "¡Realizado!",
  "addUsersPopup": "Reservar miembros/clientes potenciales en la clase",
  "updateStatus": "Actualizar estado",
  "leadStatusUpdatedSuccessfully": "Estado actualizado correctamente",
  "isMembershipCancelled": "Suscripción cancelada",
  "attendanceHistory": "Historial de asistencia",
  "addNewMemberSignUp": "Añadir reservas recurrentes",
  "endTime": "Hora de finalización",
  "seriesName": "Nombre de clase recurrente (Opcional)",
  "noSeriesInThisCategory": "No hay clases recurrentes para este tipo de clase",
  "registeredToSeriesSuccessfully": "¡Reserva a clase recurrente realizada correctamente!",
  "futureRegistrations": "Reservas futuras",
  "youWillRemoveThisMemberFromTheseClasses": "Estás a punto de eliminar a este miembro de la clase recurrente, ¿estás seguro de que quieres continuar?",
  "userWasRemovedFromSelectedClasses": "¡Reservas seleccionadas fueron eliminadas correctamente!",
  "selectAll": "Seleccionare todo",
  "searchForSeries": "Buscar clase recurrente",
  "searchForEndTime": "Buscar hora de finalización",
  "series": "Clase recurrente",
  "sessionsEnd": "Hasta que el paquete de sesiones esté finalizado",
  "membershipEnd": "Hasta el final de la suscripción",
  "editWorkoutPopup": "Editar clase",
  "isThisASeries": "¿Clase recurrente?",
  "standByManagement": "Lista de espera",
  "next": "Siguiente",
  "membersRegistration": "Estado de la reserva",
  "transparent": "No mostrar en la aplicación",
  "information": "Detalles de la clase",
  "registeredMembers": "Miembros reservados",
  "notTransparent": "Mostrar clase en la aplicación",
  "recurringEvent": "Clase recurrente",
  "notRecurringEvent": "Clase eventual",
  "noMinimumAthleteSetting": "Sin mínimo de participantes",
  "minimumAthleteSetting": "",
  "athletesUpTo": "participantes, hasta",
  "withoutDisableCancellation": "Hora de cancelación antes de clase no restringida",
  "withoutEnableRegistration": "Hora de reserva no restringida",
  "registerNewMember": "Reservar clase para miembros o clientes potenciales",
  "cancelledRegisteredMembers": "Reservas canceladas",
  "renewClass": "Revertir clase",
  "removeSingleOrSeries": "Eliminar clase",
  "removeSingleOrSeriesExplanation": "¿Deseas eliminar solo esta clase o todas las clases futuras de esta serie?",
  "cancelSingleOrSeries": "Cancelar clase",
  "cancelSingleOrSeriesExplanation": "¿Deseas cancelar solo esta clase o todas las clases futuras de esta serie?",
  "renewSingleOrSeries": "Revertir clase",
  "renewSingleOrSeriesExplanation": "¿Deseas revertir solo esta clase o todas las clases futuras de esta serie?",
  "updateSingleOrSeries": "Actualizar clase",
  "updateSingleOrSeriesExplanation": "¿Deseas actualizar solo esta clase o todas las clases futuras de esta serie?",
  "onlyThisOne": "Solo esta clase",
  "allOfFutureEvens": "Todas las clases futuras",
  "registeredDate": "Fecha de reserva",
  "cancelledDate": "Fecha de cancelación",
  "cancelledBy": "Cancelar por",
  "addToSchedule": "Añadir",
  "noOneSignedUpYet": "No hay reservas",
  "enteredDate": "Fecha de reserva",
  "restrictions": "Configuración de la clase",
  "addColorToCategoryForCalendar": "Seleccionar color",
  "waitingListIsEmpty": "La lista de espera está vacía",
  "fromDate": "Desde el",
  "order": "Encargo",
  "saveNewOrder": "Guardar nuevo encargo",
  "reorder": "Encargar de nuevo",
  "confirm": "Confirmar",
  "day-1": "Lunes",
  "day-2": "Martes",
  "day-3": "Miércoles",
  "day-4": "Jueves",
  "day-5": "Viernes",
  "day-6": "Sábado",
  "day-7": "Domingo",
  "registerNewStandby": "Añadir",
  "waitlistThresholdHourEditTitle": "Lista de espera",
  "enableLateCancellation": "Cancelación tardía activada",
  "withoutenableLateCancellation": "Cancelación tardía desactivada",
  "withoutExtraRegistrationTime": "Tiempo extra de reserva",
  "ExtraRegistrationTime": "Añadir tiempo extra de reserva",
  "ExtraRegistrationTimeHoursBefore": "Horas extra antes de la clase",
  "hasWaiver": "Renuncia firmada",
  "dateWaiver": "Fecha de firma",
  "hasWaiverReportTitle": "Renuncias firmadas",
  "lateCancellationDataReportTitle": "Cancelaciones tardías",
  "searchForMembershipTypeName": "Buscar por tipo de suscripción",
  "searchForScheduleName": "Buscar por tipo de clase",
  "searchForScheduleDate": "Buscar por fecha de clase",
  "searchForUserCancelDate": "Buscar por fecha de cancelación",
  "showingClassesDefinedTitle": "Mostrar las clases de la semana",
  "showingClassesWeekAgo": "semanas",
  "showingClassesDayAgo": "el",
  "showingClassesTimeAgo": "a las",
  "unlimitedShowingClasses": "Mostrar todas las clases de la semana",
  "accountSettingsCalendar": "Configuración del horario",
  "waitlistThresholdHour": "Detener la entrada de clientes desde la lista de espera",
  "waitlistEnteringHoursBefore": "horas antes de clase",
  "limitedShowingClasses": "Mostrar las clases de la semana desde el",
  "showingClassesWeekAgoLabel": "Número de semanas antes:",
  "showingClassesDayAgoLabel": "El:",
  "showingClassesTimeAgoLabel": "A las:",
  "lateCancellationReport": "Cancelaciones tardías",
  "waiverReport": "Renuncias firmadas",
  "seriesNameAttendance": "Nombre de clase recurrente",
  "renewDate": "Fecha de compra",
  "searchForRenewDate": "Buscar según fecha",
  "renewReport": "Renovaciones",
  "activeMembersTitle": "Miembros activos",
  "renewReportTitle": "Renovaciones",
  "youCanNotSuspensionOnUserSuspended": "No se puede suspender porque el cliente ya está en suspensión.",
  "editSuspend": "Editar suspensión",
  "startDateMustToBeBefoerEndDate": "La fecha del inicio la suspensión tiene que ser anterior a la fecha del final de la suspensión",
  "areUSureThatCancelSuspend": "¿Estás seguro de que deseas cancelar la suspensión de este cliente?",
  "scheduleLocation": "Ubicación de la clase",
  "hasBasicsWorkshop": "Sesiones básicas",
  "hasNutritionCounseling": "Asesoramiento nutricional",
  "hasProfessionalMeeting": "Reunión profesional",
  "hasInsurance": "Seguro",
  "checkboxesUserReport": "Propiedades de los miembros",
  "checkboxesUserReportTitle": "Propiedades de los miembros",
  "searchForMembershipStart": "Buscar según fecha del inicio de la suscripción",
  "memberDetailsPopup": "Datos personal",
  "memberMembershipDetailsPopup": "Detalles de la suscripción",
  "errorTextOnEditAddMember": "Por favor rellena todos los espacios obligatorios: nombre, apellido, email y género",
  "recurringSalesCreateAt": "Creado en",
  "recurringSalesBillingAmount": "Cantidad",
  "recurringSalesBillingEndDate": "Fecha de final",
  "recurringSalesChargeAt": "Fecha de cobro",
  "recurringSalesCreditCard": "Tarjeta de crédito",
  "recurringSalesIsActive": "Venta activa",
  "cancelRecurringSaleTextConfirm": "¿Estás seguro de que deseas cancelar esta venta?",
  "recurringSalesRivhit": "Ventas recurrentes",
  "hasMedicalCert": "Certificado médico",
  "allTasks": "Todas las tareas",
  "allLocations": "Todas las Ubicaciones",
  "advanced": "Avanzado",
  "freeText": "Texto libre",
  "publishWorkoutTitlePlaceholder": "Título (Opcional)",
  "publishWorkoutFreeTextPlaceholder": "Escribe tus comentarios aquí. También puedes explicar tu rutina de entrenamiento.",
  "totalRounds": "Total de rondas",
  "results": "Resultados",
  "scaled": "Escalonado",
  "rx": "RX",
  "minutes": "min",
  "invalidSectionPublishWorkout": "Faltan algunos campos en la parte de Sección, por favor rellénelos.",
  "invalidSkillPublishWorkout": "Faltan algunos campos en la parte de Habilidades, por favor rellénelos.",
  "percentageRm": "% de RM1",
  "hourClean": "Hora",
  "registerTheClientTo": "Registrar el cliente en",
  "futureClasses": "Reservas futuras",
  "chooseRegistrationWay": "Seleccionar método de reservas",
  "startRegistrationFrom": "Empezar por",
  "recurringRegisterForFutureClasses": "Reservas recurrentes",
  "expiringSessionsPacks": "Paquetes de sesiones",
  "membershipSessionExpiring": "Suscripciones a punto de caducar",
  "searchForFutureClasses": "Buscar",
  "userAlreadyRegisterToClass": "El cliente ya ha reservado una o más de las clases que has seleccionado",
  "pleaseChooseOneOption": "Por favor selecciona una opción",
  "membershipExpiringtab": "Planes",
  "seriesMemberSignUp": " Seleccionar clase",
  "settingsMemberSignUp": "Reservarla",
  "UserExistInBox": "La dirección de email que está intentando añadir ya lo usa un cliente en su club",
  "userCantEditEmail": "Este usuario ya ha iniciado sesión en Arbox, cambiar su dirección de email causará problemas al iniciar la sesión. Para más información, póngase en contacto con support@arboxapp.com",
  "doNotUpdateUserProperty": "Cerrar sin actualizar",
  "updateUserProperty": "Actualizar los datos del usuario",
  "doYouWantToUpdateUserProperty": "ha actualizado sus datos, ¿deseas actualizar?",
  "limit": "Límite",
  "frequency": "Frecuencia",
  "sessionAmount": "Cantidad del paquete",
  "definition": "Establecer",
  "inBetween": "y",
  "allowRegisteringOnlyForClassType": "Permitir reserva solo para",
  "limitRegisterFrequency": "Permitir frecuencia de clases",
  "limitClassHoursBetween": "Limitar horas de clase entre",
  "specialProperties": "Propiedades especiales",
  "addExtraRegistrationTime": "Horas extra para registrarse antes de la clase",
  "memberTypes": "Tipos de suscripción",
  "businessSettings": "Configuración de negocios",
  "editSessionPackHeader": "Editar paquete de sesiones",
  "editPlanPackHeader": "Editar tipo de suscripción",
  "addNewPlanPackHeader": "Crear nuevo tipo de suscripción",
  "addNewSessionPackHeader": "Crear nuevo paquetes de sesiones",
  "deletedSuccessfully": "Eliminado correctamente",
  "deleteWaringTaskType": "¿Estás seguro de que deseas eliminar este tipo de tarea?",
  "deleteWaringMembershipTypePlan": "¿Estás seguro de que deseas eliminar este tipo de suscripción?",
  "deleteWaringMembershipSession": "¿Estás seguro de que deseas eliminar este paquete de sesiones?",
  "deleteWaringBoxStatuses": "¿Estás seguro de que deseas eliminar este estado?",
  "deleteWaringBoxSources": "¿Estás seguro de que deseas eliminar esta fuente?",
  "deleteWaringBoxCategories": "¿Estás seguro de que deseas eliminar este tipo de clase?",
  "permission": "Permiso",
  "permissions": "Permisos",
  "personalDetails": "Datos personales",
  "addNewSystemUser": "Añadir usuario",
  "editSystemUser": "Editar usuario",
  "BOXADMIN": "Propietario",
  "COACH": "Entrnador",
  "SECRETARY": "Secretario",
  "MANAGER": "Director",
  "SALESMANAGER": "Jefe de ventas",
  "SALESMAN": "Ventas",
  "SERVICE": "Servicio",
  "RECEPTIONLIST": "Recepcionista",
  "BOXADMINPermissionHeader": "Propietario:",
  "BOXADMINPermissionInfo": "Este permiso da acceso completo al sistema. El usuario puede agregar otros usuarios y realizar adiciones, modificaciones y eliminaciones en todas las herramientas del sistema de administración.",
  "MANAGERPermissionHeader": "Director:",
  "MANAGERPermissionInfo": "Este permiso da acceso completo al sistema. El usuario puede agregar otros usuarios y realizar adiciones, modificaciones y eliminaciones en todas las herramientas del sistema de administración.",
  "SALESMANAGERPermissionHeader": "Jefe de ventas:",
  "SALESMANAGERPermissionInfo": "Este permiso da al usuario un acceso casi completo al sistema. El usuario verá el panel, los clientes, los clientes potenciales, los informes y el calendario.",
  "SALESMANPermissionHeader": "Ventas:",
  "SALESMANPermissionInfo": "Este permiso da acceso al sistema de gestión para todas las secciones conectadas a los clientes potenciales, incluido su perfil, conversaciones, la reserva de clases para clientes potenciales. También el perfil del cliente y las renovaciones de suscripción.",
  "SERVICEPermissionHeader": "Servicio:",
  "SERVICEPermissionInfo": "Este permiso da al usuario acceso a todas las secciones relacionadas con los clientes, podrá crear nuevos clientes, renovar suscripciones, editar los detalles de los clientes y aceptar pagos. También da acceso al horario del club.",
  "RECEPTIONLISTPermissionHeader": "Recepcionista:",
  "RECEPTIONLISTPermissionInfo": "Este permiso da acceso mínimo al sistema. El usuario solo puede ver el perfil de los clientes sin posibilidad de realizar ninguna acción. El usuario podrá reservar clases para clientes y consultar horario.",
  "SECRETARYPermissionHeader": "Servicio:",
  "SECRETARYPermissionInfo": "Este permiso da acceso mínimo al sistema. El usuario solo puede ver el perfil de los clientes sin posibilidad de realizar ninguna acción. El usuario podrá reservar clases para clientes y consultar horario.",
  "COACHPermissionHeader": "Entrenador:",
  "COACHPermissionInfo": "Este permiso le da al usuario el acceso para publicar y ver el entrenamiento del día. El usuario también puede registrar a los clientes en las clases y ser asignado como entrenador de las clases",
  "systemUsers": "Usuarios",
  "club": "Club",
  "sales": "Ventas",
  "taskCharacter": "Tipo de tarea ",
  "user": "Usuario",
  "general": "General",
  "allSystemUsers": "Todos los usuarios",
  "editTaskHeader": "Editar tarea",
  "addNewTaskHeader": "Crear tarea",
  "selectSystemUser": "Seleccionar usuario",
  "searchLeadOrMember": "Buscar cliente potencial o miembro",
  "undone": "Incompleto",
  "uploadImage": "Subir el logo de la empresa",
  "auditAddNewClient1": "Añadido ",
  "auditAddNewClient2": " al sistema como cliente",
  "auditAddNewLead1": "Añadido ",
  "auditAddNewLead2": " al sistema como cliente potencial",
  "auditNewsActions1": "Nuevo mensaje publicado",
  "auditNewsUpdate1": "Novedades editadas",
  "auditNewsDeleted1": "Novedades eliminadas",
  "auditAddNewTask1": "Creada tarea del tipo ",
  "auditAddNewTask2": " respecto a ",
  "auditAddNewTask3": "",
  "auditLeadConvertToMember1": "Convertido ",
  "auditLeadConvertToMember2": " en miembro",
  "auditEditLead1": "Editado ",
  "auditEditLead2": "",
  "auditLeadReviveLeadOrLost1": "Cambiado el estado de ",
  "auditLeadReviveLeadOrLost2": "",
  "auditDeleteLead1": "Cliente potencial eliminado ",
  "auditDeleteLead2": "",
  "auditLeadStatusChange1": "Cambiado el estado de ",
  "auditLeadStatusChange2": "",
  "auditLeadAddNewTask1": "Añadida tarea del tipo",
  "auditLeadAddNewTask2": " respecto a ",
  "auditLeadAddNewTask3": "",
  "auditLeadEditTask1": "Actualizado ",
  "auditLeadEditTask2": "",
  "auditEditClient1": "Cliente editado ",
  "auditEditClient2": "",
  "auditDeleteClient1": "Cliente eliminado ",
  "auditDeleteClient2": "",
  "auditConvertedToCoach1": "Convertido cliente ",
  "auditConvertedToCoach2": " a entrenador",
  "auditActiveClient1": "Activado ",
  "auditActiveClient2": "",
  "auditAeactiveClient1": "Desactivado ",
  "auditAeactiveClient2": "",
  "auditResetPasswordClient1": "Enviar un link para restablecer la contraseña ",
  "auditResetPasswordClient2": "",
  "auditMemberEditSessions1": "Editado el número de sesiones para el cliente ",
  "auditMemberEditSessions2": " del paquete: ",
  "auditMemberEditSessions3": "",
  "auditMemberCancelMembership1": "Cancelada la ",
  "auditMemberCancelMembership2": "suscricpción de ",
  "auditMemberCancelMembership3": "",
  "auditMemberCancelMembershipSuspension1": "Cancelada la suspensión ",
  "auditMemberCancelMembershipSuspension2": "en la suscripción ",
  "auditMemberCancelMembershipSuspension3": "",
  "auditMemberEditSuspension1": "Editada la suspensión ",
  "auditMemberEditSuspension2": "de la suscripción ",
  "auditMemberEditSuspension3": "",
  "auditMemberAddSuspension1": "Suspendida la ",
  "auditMemberAddSuspension2": " suscripción de ",
  "auditMemberAddSuspension3": "",
  "auditMemberRestrictMembership1": "Cliente con restricción ",
  "auditMemberRestrictMembership2": " para reservar",
  "auditMemberCancelRestrictMembership1": "Cancelada la restricción de reservas de ",
  "auditMemberCancelRestrictMembership2": "",
  "auditMemberRenewMembership1": "Renovada la suscripción de ",
  "auditMemberRenewMembership2": " a ",
  "auditMemberRenewMembership3": "",
  "memberEditMembershipDates1": "Editadas las fechas de ",
  "memberEditMembershipDates2": " suscripción de ",
  "memberEditMembershipDates3": "",
  "auditMemberAddNewTask1": "Añadida tarea del tipo ",
  "auditMemberAddNewTask2": " respecto a ",
  "auditMemberAddNewTask3": "",
  "auditMemberEditTask1": "Actualizada la tarea del tipo ",
  "auditMemberEditTask2": " respecto a ",
  "auditMemberEditTask3": "",
  "auditScheduleAddAthleteToClass1": "Añadido ",
  "auditScheduleAddAthleteToClass2": " a la ",
  "auditScheduleAddAthleteToClass3": " clase",
  "auditScheduleAddAthleteToWaitingList1": "Añadido ",
  "auditScheduleAddAthleteToWaitingList2": " a la lista de espera ",
  "auditScheduleAddAthleteToWaitingList3": " clase",
  "auditPublishWorkoutPublishWorkout1": "Publicada la rutina de ",
  "auditPublishWorkoutPublishWorkout2": "",
  "auditPublishWorkoutEditWorkout1": "Editada la rutina de ",
  "auditPublishWorkoutEditWorkout2": "",
  "auditPublishWorkoutDeleteWorkout1": "Deleted the workout of ",
  "auditPublishWorkoutDeleteWorkout2": "",
  "auditBoxSectionActions1": "Sección añadida / editada ",
  "auditBoxSectionActions2": "",
  "auditAddNewSystemUser1": "Añadido ",
  "auditAddNewSystemUser2": "al sistema como usuario",
  "auditEditSystemUser1": "Editado el usuario ",
  "auditEditSystemUser2": "",
  "auditMembershipTypeActions1": "Suscripción añadida ",
  "membershipTypeActions2": "",
  "auditBoxStatusActions1": "Estado de cliente potencial añadido / editado  ",
  "auditBoxStatusActions2": "",
  "auditBoxSourceActions1": "Fuente añadida / editada  ",
  "auditBoxSourceActions2": "",
  "auditBoxCategoryActions1": "Añadida / editada Clase del tipo ",
  "auditBoxCategoryActions2": "",
  "auditTaskTypeActions1": "Añadida / editada tarea del tipo ",
  "auditTaskTypeActions2": "",
  "auditCheckin1": "Registrado en ",
  "auditCheckin2": " en la clase ",
  "auditCheckin3": "",
  "auditCancelCheckin1": "Cancelado el registro de ",
  "auditCancelCheckin2": " a la clase ",
  "auditCancelCheckin3": "",
  "auditAddToClass1": "Añadido ",
  "auditAddToClass2": " a la clase ",
  "auditAddToClass3": "",
  "auditDeleteFromClass1": "Eliminado ",
  "auditDeleteFromClass2": " de la clase ",
  "auditDeleteFromClass3": "",
  "auditConvertCoach1": "Convertido: el usuario ",
  "auditConvertCoach2": " a miembro",
  "auditScheduleCancelClass1": "Cancelado el ",
  "auditScheduleCancelClass2": " clase",
  "auditScheduleDeleteClass1": "Eliminado el ",
  "auditScheduleDeleteClass2": " clase",
  "auditScheduleAddNewClass1": "Añadido ",
  "auditScheduleAddNewClass2": " clase",
  "auditScheduleEditClassDetails1": "Editado el ",
  "auditScheduleEditClassDetails2": " clase",
  "auditMemberDeleteTask1": "Eliminada: tarea del tipo ",
  "auditMemberDeleteTask2": " respecto a ",
  "auditMemberDeleteTask3": "",
  "actionHistory": "Actividad",
  "deleteSystemUserApprove": "¿Estás seguro de que quieres eliminar a este usuario del sistema?",
  "deleteSystemUserSuccess": "El usuario ha sido eliminado correctamente del sistema.",
  "nonactive": "No Activo",
  "memberOfTheClubAsOfDate": "Miembro desde:",
  "membershipTypeAttendance": "Asistencia",
  "dateOfBuyMembership": "Fecha de compra",
  "membershipsTypeTitle": "Suscripciones",
  "newSuspension": "Nueva suspensión",
  "existsSuspension": "Suspensión actual",
  "isRestricted": "Restringido",
  "entersMembership": "Entradas",
  "lateCancellationMembertship": " Cancelaciones tardías",
  "attendenceMembership": "Asistencia",
  "createdAtSuspend": "Nueva espera",
  "memberEditModeDetailsPopup": "Propiedades de clientes",
  "createBy": "Acabado antes de",
  "userBiNotShowedUpThisWeek2": "vino por última vez en",
  "userBiMembershipIsAboutToEnd1": "En",
  "userBiMembershipIsAboutToEnd2": "días la suscripción ",
  "userBiMembershipIsAboutToEnd3": " caducará",
  "userBiSessionEnd1": "",
  "userBiSessionEnd2": " sesiones que quedan en ",
  "userBiSavgTraining2": "asiste ",
  "userBiSavgTraining3": "veces a la semana de media",
  "burnChip": "Ingresar indentificación Chip",
  "chipIdentifier": "Identificación Chip",
  "remarks": "Observaciones",
  "burnChipSuccess": "Identificación Chip ingresada con éxito",
  "userBiTitle": "Creemos que deberías saber que...",
  "membershipActive": "Activo",
  "membershipNonactive": "No activo",
  "syncItemsRivhitTitlePartOne": "Actualmente estamos realizando mejoras y fortaleciendo nuestra cooperación con una empresa rentable, y estamos buscando su cooperación para sincronizar los elementos entre los dos sistemas. ¡Gracias por tu paciencia!",
  "syncItemsArboxItems": "Elementos de la caja de barras",
  "syncItemsRivhitItems": "Artículos rentables",
  "syncItemsTotalPrice": "Precio final",
  "syncItemsBtn": "Sincronizar",
  "chooseItem": "Seleccione un producto",
  "syncArboxItemsBtn": "",
  "syncItemsRivhitTitlePartTwo": "Ahora se le presentarán los elementos restantes en rentabilidad y no se sincronizarán con Arbox, y los elementos marcados con V se agregarán a la tienda de Arbox.",
  "memberTypesItems": "Productos",
  "addMemberhipTypeItem": "Añadir Producto",
  "addItem": "Añadir Producto",
  "membershipTypeItemUpdated": "Producto editado",
  "editMemberhipTypeItem": "Editar producto",
  "membershipItems": "Productos",
  "uAreSelectedSomeItemsTwice": "Uno de los productos ha sido seleccionado dos veces, cámbielo para poder continuar",
  "uMostSetAllPriceItems": "La cantidad debe ser establecida para todos los productos",
  "createNewRivhitItem": "Rentabilidad en ganancias",
  "purchases": "Compras",
  "payment": "Pago",
  "paymentSummary": "Resumen",
  "purchaseSummary": "Resumen de la compra",
  "prev": "Atrás",
  "endStages": "Hecho",
  "inPurchaseOccasion": "Pagar ahora",
  "debt": "Deuda",
  "debtSelected": "Deuda",
  "debtUnSelected": "Insertar deuda",
  "cashPurchase": "Comprar sin pago",
  "choosePaymentOption": "Seleccionar método de pago",
  "discount": "Descuento",
  "discountPercentage": "%",
  "paymentSum": "Cantidad total",
  "membershipTypeMustHavePrice": "Cada artículo debe tener un precio",
  "newMembershipAdded": "Se ha añadido el miembro",
  "membershipDetailsUpdated": "Se ha actualizado la suscripción del miembro ",
  "noPaymentReceived": "Pago no recibido",
  "partialPaymentReceived": "Pago parcial recibido",
  "accountedDebt": "Contabilizada: deuda de ",
  "toCustomer": "al miembro",
  "toDate": "Fecha del final",
  "dueDate": "Fecha de vencimiento",
  "writtenProof": "Prueba escrita",
  "fullPaymentReceived": "Pago completo recibido",
  "debtSubTotal": "Total pago",
  "reduceOrFillDebt": "Actualizar el balance a:",
  "closeCashPurchase": "Cerrar sin recibo",
  "recurringSalePurchase": "Compra recurrente",
  "paid": "Pagado",
  "toMonth": "por mes",
  "toYear": "por año",
  "inTotal": "total",
  "currencySymbol": "",
  "disapprovalWaiverTextBtn": "No estoy de acuerdo",
  "approvalWaiverTextBtn": "Estoy de acuerdo",
  "areUSureDisapprovalWaiver": "No puedes continuar sin firmar la renuncia",
  "paymentRivhitTablet": "Pago",
  "completedProcess": "¡Bienvenido a nuestro club! Pronto recibirás un email con la contraseña y el link de suscripción",
  "SIGNUPACCESS": "Interfaces públicas",
  "SIGNUPACCESSPermissionHeader": "Interfaces públicas",
  "SIGNUPACCESSPermissionInfo": "El usuario con este permiso solo puede entrar en páginas públicas como la página de auto-registro y la plataforma de suscripción",
  "menu": "Menú",
  "wellcomeStartCreateUserTablet": "¡Bienvenido! ¿Empezamos?",
  "startCreateUserTabletBtn": "¡Empieza aquí!",
  "areUSureDisapprovalWaiverCancel": "Deseo firmar",
  "areUSureDisapprovalWaiverOk": "No deseo firmar",
  "approvalWaiver": "Renuncia",
  "emailExistInBox": "Este email ya existe en el club. Prueba otro email",
  "medicalStatement": "Certificado médico",
  "medicalStatementSetting": "Certificado médico",
  "question": "Pregunta",
  "deleteWaringMedicalStatement": "¿Estás seguro de que quieres eliminar esta pregunta?",
  "addNewMedicalQuestion": "Añadir nueva pregunta médica",
  "allowMailingList": "Suscribirse a lista de email",
  "allowSms": "Suscribirse a lista de SMS",
  "showInSignupPagePopupMembershipType": "Mostrar en página de registro",
  "userProfileDetailsContact": "Datos de contacto",
  "userProfileDetailsLocation": "Detalles de la dirección",
  "userProfileDetailsInfo": "Propiedades",
  "userProfileDetailsMedicalStatment": "Certificaco médico",
  "userProfileDetailsallowSms": "Suscrito a lista de SMS",
  "userProfileDetailsMailingList": "Suscrito a lista de email",
  "answer": "Respuesta",
  "products": "Productos",
  "receiptsAndDocuments": "Facturas y recibos",
  "UserLogMembershipCreated": "Se ha unido al club",
  "UserLogMembershipRenew": "Renovación de suscripción",
  "UserLogMembershipLeadConverted": "Conversión de cliente potencial",
  "UserLogMembershipEditSessions": "Número de sesiones editado desde",
  "UserLogMembershipUserSuspensionFor": "El miembro debe",
  "UserLogMembershipUserSuspensionChanged": "Cambio de fechas de suspensión",
  "UserLogBecauseOf": "porque",
  "UserLogMembershipUserSuspensionTotal": "Total fechas de suspensión",
  "UserLogMembershipUserSuspensionCancel": "Suspensión cancelada",
  "UserLogMembershipConvertedCoachToMember": "Entrenador ha sido cambiado a miembro",
  "UserLogMembershipConvertedMemberToCoach": "Miembro ha sido cambiado a entrenador",
  "UserLogMembershipCancel": "Suscripción cancelada",
  "UserLogMembershipEditDates": "Cambio de fechas de suscripción",
  "IncomeManagment": "Gestión manual de finanzas",
  "IncomeManagmentButtonLabel": "Habilitar gestión manual de finanzas",
  "IncomeManagmentPopupInfo": "Arbox ofrece la opción de gestionar manualmente los ingresos y los resultados",
  "Definition": "Ajuste",
  "Debts": "Deudas",
  "membershipPurchase": "Nueva compra",
  "settingsType": "Tipo",
  "sentLinkOfSignUp": "Enviar página de Registro",
  "sentLinkSignupSuccess": "La página de Registro se ha enviado con éxito",
  "chooseStartDate": "Elegir fecha de comienzo",
  "searchForDebt": "Buscar deuda",
  "allowSmsPopup": "Suscrito a lista SMS",
  "allowMailingListPopup": "Suscrito a lista mail",
  "createUserTitlePopup": "Añadir nuevo miembro",
  "renewMembershipTitlePopup": "Nueva compra",
  "debtReduceTitlePopup": "Actualizar el saldo",
  "UserLogPurchaseAction": "Compra de producto",
  "UserLogRenewAction": "Renovación de suscripción",
  "UserLogDebtReduceAction": "Saldo / Deuda",
  "UserLogConvertedToMember": "Conversión cliente potencial",
  "UserLogCreatedNewAction": "Nuevo miembro creado",
  "UserLogNoteAction": "Nota",
  "UserLogEditDatesAction": "Editar fechas",
  "UserLogSuspensionAction": "Suspensión",
  "UserLogEditSuspensionAction": "Editar Suspensión",
  "UserLogCancelSuspensionAction": "Cancelar Suspensión",
  "UserLogCancelAction": "Cancelar suscripción",
  "UserLogAndPayed": "Hemos registrado una transferencia monetaria de",
  "UserLogPayedFor": "para",
  "UserLogAndPurchased": "Comprado",
  "UserLogIn": "en",
  "UserLogDebtWasRecorded": "Registro de deuda de",
  "UserLogPartialMode": "parcialmente",
  "UserLogOf": "fuera de",
  "UserLogRecurringSalesOptions": "Pagado por pago recurrente",
  "UserLogNoReceiptPaymentOptions": "No ha sido pagado",
  "UserLogConvertToMember": "El usuario se ha convertido en miembro",
  "UserLogAnd": "y",
  "UserLogTheClient": "El miembro",
  "UserLogFromDebtBeforeChagne": "fuera de",
  "UserLogTotalNewDebt": "La nueva transferencia: ",
  "UserLogMembershipUserSuspensionedFor": "La suscripción ha sido retenida para",
  "UserLogUpdatedTo": "actualizada a",
  "UserLogAndNowIs": "y ahora es",
  "UserLogMembershipUserSuspensionCancelDateIsBackTo": "La fecha de final de la suscripción ha vuelto a la original",
  "UserLogMembershipCancelNewEndDate": "La nueva fecha de suscripción es:",
  "UserLogRestrictedAction": "Restricción miembros",
  "UserLogRestrictedUser": "Miembro con restricción para reservar clases",
  "UserLogUnrestrictedAction": "No restricción",
  "UserLogUnrestrictedUser": "Miembro sin restricción para reservar clases",
  "UserLogSentLinkOfSignUpLead": "Se ha enviado la Página de Registro",
  "UserLogRevivedLead": "Volver a la acción",
  "UserLogCreatedLead": "Cliente potencial añadido",
  "UserLogLostLead": "Cliente potencial marcado como perdido",
  "remainingDebt": "Deuda restante",
  "recurringSalesPurchase": "¡No olvides de espicificar un pago recurrente!",
  "searchForPrice": "Buscar por precio",
  "searchForStaff": "Buscar por usuario",
  "UserLogDetailsAction": "Descripción",
  "paymentRivhit": "Pago",
  "selectDocumentType": "Seleccionar documentación",
  "taxInvoiceReceipt": "Factura",
  "rejectedReceipt": "Recibo para futuros pagos",
  "taxInvoiceReceiptCreated": "Se ha generado recibo/ factura",
  "receiptCreated": "Se ha generado recibo",
  "rejectedReceiptCreated": "Las facturas fiscales se emitirán en la fecha de vencimiento",
  "activePlainMembers": "Clientes Activos",
  "dashboardTotalMonthlySales": "Total Ingresos Mensuales",
  "dashboardOpenDebts": "Deudas Abiertas",
  "dashboardTodayTrainers": "Asisten Hoy",
  "dashboardNoTasksToday": "No hay Tareas para Hoy",
  "dashboardNoTasksTodaySubText": "",
  "dashboardNoSchedulesToday": "No hay Clases Hoy",
  "dashboardOpenLeads": "Clientes potenciales abiertos",
  "dashboardNoSchedulesTodaySubText": "",
  "dashboardLeadsRegisterForTrial": "Clases de Prueba",
  "registerUserToScheduleOutSideDate": "La clase no tiene lugar durante las fechas de suscripción",
  "future": "Futuro",
  "dashboardNoOpenLeads": "No hay clientes potenciales abiertos",
  "dashboardNoOpenLeadsSubText": "Empieza a gestionar tus clientes potenciales, ¡te hará mejor!",
  "holds": "Retenciones",
  "createNewHold": "Nueva retención",
  "editHold": "Editar retención",
  "membershipHoldDatesNotAvailable": "Las fechas elegidas tienen lugar durante otras fechas con retención",
  "membershipHoldCancelAreYouSure": "¿Estás seguro de querer cancelar esta retención?",
  "membershipHoldsNotFound": "Retenciones de cualquier miembro no encontradas",
  "membershipHoldRemoveFromScheduleUserWarning": "Esto cancelará todas las reservas de este cliente durante este periodo",
  "noReceiptPayment": "Sin Pago",
  "leadsDistribution": "Clientes potenciales",
  "separatedPayment": "Pago por separado",
  "separatedPaymentInfo": "Debes cobrarle por separado",
  "searchForNameField": "Buscar por nombre",
  "searchForStandByAmount": "Buscar por standby",
  "usersEnters": "Entrada (usando llave inteligente)",
  "searchForEnterByHour": "Buscar por hora de entrada",
  "missingUsersEnters": "Ausencia de datos de entrada",
  "noteFutureMembership": "suscripción empieza a las:",
  "noteAction": "Nota",
  "emailAlreadyExistsException": "Este email ya existe en tu club. Si ha sido eliminado antes, por favor contáctanos",
  "multiUserChangeEmailException": "No puedes editar el email de este cliente, por favor contáctanos para ello.",
  "resendWelcomeMail": "Enviar Email de Bienvenida otra vex",
  "resendWelcomeMailEmailSent": "¡El Email de Bienvenida ha sido enviado con éxito!",
  "resendWelcomeMailWarningText": "¿Estás seguro de querer enviar el Email de Bienvenida otra vez?",
  "cancelledClass": "Cancelado",
  "activeClass": "Ocurre en",
  "age": "Edad",
  "searchByAge": "Buscar por Edad",
  "smsApprove": "Suscribir a SMS",
  "mailingApprove": "Suscribir a Email",
  "preference": "Preferencias",
  "displayUserInjuriesOnCheckIn": "¿Mostrar lesiones de clientes en la plataforma de registro?",
  "displayUserInjuriesOnCheckInPopUpHeader": "Mostrar lesiones de clientes en la plataforma de registro",
  "displayUserInjuriesOnCheckInPopUpButtonLabel": "Mostrar lesiones: desactivado",
  "displayUserInjuriesOnCheckInPopUpButtonLabelOff": "Mostrar lesiones: activado",
  "displayUserInjuriesOnCheckInPopUpInfo": "Puedes elegir si mostrar lesiones de clientes para los entrenadores en la plataforma de registro",
  "limitDays": "Permitir reserva solo en días determinados",
  "restrictType": "Tipo de propiedad",
  "FREQUENCY": "Solo frecuencia",
  "CLASS_FREQUENCY": "Por clase y frecuencia",
  "hyphenTo": "hasta ",
  "membershipTypePropTh": "Propiedades especiales",
  "DAY": "Día",
  "WEEK": "Semana",
  "MONTH": "Mes",
  "YEAR": "Año",
  "limitFreeSpace": "Reservar en espacio libre",
  "limitFreeSpace1": "Permitir reserva más allá del límite de",
  "limitFreeSpace2": "clases",
  "limitFreeSpace3": "Horas antes de clase",
  "limitLocations": "Permitir reserva solo en ubicación",
  "taskPast": "Tarea con retraso",
  "taskFuture": "Tarea futura",
  "taskToday": "Tarea de hoy",
  "taskNone": "No hay tarea",
  "priceAfterDiscount": "Precio final",
  "salePaymentType": "Tipo de pago",
  "saleType": "Tipo de venta",
  "searchForDiscount": "Buscar por descuento",
  "saleDate": "Fecha de venta",
  "salesReportItem": "Artículo",
  "membershipTypePropClassType1": "La suscripción de este miembro no le permite reservar clases de este tipo",
  "membershipTypePropClassType2": ". ¿Quieres permitirle reservar igualmente?",
  "membershipTypePropFrequency1": "La suscripción de este miembro no le permite reservar clases más de",
  "membershipTypePropFrequency2": " veces por ",
  "membershipTypePropFrequency3": ". ¿Quieres permitirle reservar igualmente?",
  "membershipTypePropHours1": "La suscripción de este miembro no le permite reservar clases en estas horas. ¿Quieres permitirle reservar igualmente?",
  "membershipTypePropDays1": "La suscripción de este miembro no le permite reservar clases los ",
  "membershipTypePropDays2": ". ¿Quieres permitirle reservar igualmente?",
  "membershipTypePropClassFrequency1": "La suscripción de este miembro no le permite reservar clases de el tipo",
  "membershipTypePropClassFrequency2": "más de ",
  "membershipTypePropClassFrequency3": "veces por",
  "membershipTypePropClassFrequency4": ". ¿Quieres permitirle reservar igualmente?",
  "membershipTypePropLocation1": "La suscripción de este miembro no le permite reservar clases en ",
  "membershipTypePropLocation2": ". ¿Quieres permitirle reservar igualmente?",
  "selectYear": "Año",
  "leadsStatistics": "Estadísticas de clientes potenciales",
  "month01": "Enero",
  "month02": "Febrero",
  "month03": "Marzo",
  "month04": "Abril",
  "month05": "Mayo",
  "month06": "Junio",
  "month07": "Julio",
  "month08": "Agosto",
  "month09": "Septiembre",
  "month10": "Octubre",
  "month11": "Noviembre",
  "month12": "Diciembre",
  "createdLeads": "Clientes potenciales añadidos",
  "inProcessLeads": "Clientes potenciales en proceso",
  "searchBy": "Buscar según",
  "allowRegisteringOnlyForClassTypeOpen": "Permitir solo estas clases",
  "allowRegisteringOnlyForFrequencyOpen": "Permitir solo esta frecuencia",
  "limitDaysOpen": "Permitir solo estos días",
  "limitLocationsOpen": "Permitir solo en esta ubicación",
  "allowRegisteringOnlyForFrequency": "Permitir solo esta frecuencia",
  "lostPercentage": "Porcentaje perdido",
  "convertedPercentage": "Porcentaje de conversión",
  "isFutureMembership": "Tiene suscripción futura",
  "unknown": "Desconocido",
  "unsubscribe": "Dado de baja",
  "editLeadPopupHeader": "Editar cliente potencial",
  "addLeadPopupHeader": "Añadir cliente potencial",
  "second_coach": "Segundo entrenador",
  "without": "Sin",
  "messageContent": "Contenido del mensaje",
  "messageParameters": "Parámentros del mensaje",
  "newSmsMessage": "Nuevo SMS",
  "newSmsMessageTo": "Nuevo SMS para",
  "targetAudience": "Público objetivo",
  "send": "Enviar",
  "messagesCenter": "Centro de mensajería",
  "smsBalance": "saldo de SMS",
  "messageType": "Tipo de mensaje",
  "push": "Notificación automática",
  "sendingTime": "Hora de envío",
  "allTime": "Todos",
  "recipient": "Enviado a",
  "recipients": "Enviado a",
  "contents": "Contenido",
  "removeRequest": "Eliminado",
  "message": "Contenido",
  "messages": "Mensajes",
  "deleteNewsWarning": "¡Atención! Estás a punto de eliminar un mensaje público",
  "deleteUserMessageWarning": "¡Atención! Estás a punto de eliminar este mensaje",
  "messageSentSuccessfully": "Enviado correctamente",
  "messagesCenterNoAllowedUsersException": "Ups, tus usuarios no han autorizado la política de SMS",
  "messagesCenterMessageProcessing": "¡Atención! Estamos procesando los datos, el mensaje se actualizará pronto",
  "CenterChooseAtLeastOne": "Selecciona al menos un miembro",
  "messagesCenterBoxSmsLimitReachedException": "Se ha alcanzado el límite de SMS, por favor contacta con atención al cliente o reanuda el inventario",
  "newPushMessage": "Nueva notificación automática",
  "newPushMessageTo": "Nueva notificación automática para",
  "displayRegularClients": "¿Deseas mostrar los clientes habituales?",
  "displayRegularClientsPopUpHeader": "Mostrar clientes habituales",
  "displayRegularClientsPopUpInfo": "¿Deseas habilitar el modo de clientes habituales?",
  "displayRegularClientsPopUpButtonLabel": "Activar",
  "displayRegularClientsPopUpButtonLabelOff": "Desactivar",
  "regularClientsRegistration": "Clientes habituales",
  "userAlreadyRegularClient": "El cliente ya existe en la lista de clientes habituales",
  "hasActiveMembership": " ¿Activo?",
  "regularClientsCalendar": "Clientes habituales",
  "youWillDeleteRegularClients": "¡Atención! Estás a punto de eliminar un cliente de la lista de clientes habituales",
  "regularClientsToSeriesIsFull": " ¡Atención! La serie está completa",
  "removeSingleOrSeriesRegularClient": "Eliminar de lista de clientes habituales",
  "regularClientShedulesFullBookingTitle": "Ups, parece que algunas de las clases ya están completas",
  "regularClientShedulesFullBookingPrefix": " Fecha de entrenamiento ",
  "regularClientShedulesFullBookingSuffix": "Completo ",
  "regularClientShedulesFullBookingEndMessage": "La clase está completa, ¿quieres añadir igualmente?",
  "choosingOtherTraining": "Selecciona de la lista",
  "reservedSeats": "Clase reservada",
  "fullScheduleBooking": "La clase está completa ",
  "attendanceRegularClient": "Registro de clientes habituales",
  "removeRegularClientUserProfileTitle": "Eliminar de la lista de clientes habituales",
  "removeRegularClientUserProfileContent": "¡Atención! Estás a punto de eliminar un cliente habitual de esta serie, por lo que también se cancelarán las clases recurrentes asociadas a esta serie. ¿Deseas continuar?",
  "regularClientReportName": "Clientes habituales",
  "regularClientReportNameInside": "Clientes habituales",
  "sms": "SMS",
  "smsMessage": "SMS",
  "pushMessage": "Notificación automática",
  "messagesCenterNoAllowedUsersExceptionPush": "Ups, los usuarios no han autorizado la opción de notificaciones automáticas",
  "messagesCenterNotAllowedPrivateMessagePush": "Ups, el usuario no ha autorizado la opción de notificaciones automáticas",
  "messagesCenterNotAllowedPrivateMessage": "Ups, este usuario no ha autorizado la política de SMS",
  "viewMessage": "Detalles del mensaje",
  "theMessage": "Contenido",
  "messagesCenterBoxPhoneInvalidException": "El numero de teléfono no es válido, por favor contacta con nosotros para cambiarlo.",
  "registerNewRegularClients": "Selecciona clientes habituales",
  "registeredRegularClients": "Has reservado una plaza para los siguientes miembros",
  "selectPaymentMethod": "Selecciona método de pago",
  "newCreditCard": " Introducir nueva tarjeta",
  "otherPaymentMethod": "Otro método de pago",
  "showRefundOpen": "Deseo emitir una factura y hacer un reembolso de la cantidad de ",
  "showRefundClose": "Reembolsar",
  "creditCardType": "Tipo de tarjeta - ",
  "lastFourDigits": "Tarjeta que termina en ",
  "cvv": "cvv",
  "identityCard": " DNI",
  "creditCardNumber": "Número de tarjeta",
  "insights": "Percepciones",
  "selectDateRange": "Seleccionar fechas:",
  "showResults": "Mostrar resultados",
  "bookKeeping": "Contabilidad",
  "itemsBestSales": "Más vendidos",
  "rushHours": "Hora punta",
  "totalEntersByDays": "Visitas por día",
  "customerMovements": "Estatus de cliente",
  "insightOpenLeadsInProcess": "Clientes potenciales abiertos",
  "insightCreatedLeadsTotal": "Nuevo",
  "insightConvertedTotal": "Clientes potenciales convertidos",
  "insightLostLeadsTotal": "Perdidos",
  "insightConvertedLostRelation": "יTasa de conversión",
  "insightNewClientsTotal": "Nuevo",
  "insightRenewsTotal": "Renovaciones ",
  "insightHoldActionsTotal": "En espera",
  "insightCancelsTotal": "Cancelados",
  "insightExpiredTotal": "Expirados",
  "insightRenewsPercentage": "Tasa de retención de clientes",
  "insightUserEntersTotal": "Total de visitas",
  "insightSalesTotal": "Total de ventas",
  "insightSalesMemberships": "Memberships",
  "insightSalesItems": "Productos",
  "insightSalesMembershipsPercentage": "Tasa de afiliación",
  "insightSalesItemsPercentage": "Tasa de venta de producto",
  "insightActiveMembersEntersTotal": "Visitantes únicos",
  "insightActiveMembersStart": "En el primer día",
  "insightActiveMembersEnd": "En el último día",
  "insightActiveMembersBookedClientsTotal": "Reservado",
  "insightActiveMembersGrowth": "Crecimiento",
  "insightActiveMembersGrowthPercentage": "Tasa de crecimiento",
  "insightActiveMembersFutureMembership": "Suscripción futura activa",
  "insightActiveMembersInHold": "Miembros en espera",
  "insightTotalWithoutTax": "Factura",
  "insightTax": "IVA",
  "insightTotalWithTax": "Factura IVA",
  "insightTotalReceipts": "Recibos",
  "insightConvertedLeadsPercentage": "Tasa de Conversión",
  "sessionsPackOver": "¡Atención! Se ha alcanzado el límite del Packççqute de Sesiones del cliente. Estás a punto de registrarle en más clases de las que ha pagado. ¿Deseas continuar igualmente?",
  "UserIsDeactivated": "¡Atención! El cliente está desactivado, por haber caducado su paquete de sesiones o suscripción. Estás a punto de registrarle. ¿Deseas continuar igualmente?",
  "taskCreateOwner": "Creado por",
  "insightsAttendance": "Control de entrada (con llave inteligente)  ",
  "shiftReport": "Resumen de turnos",
  "shiftReportNameInside": "Resumen de turnos",
  "scheduleDay": "Día exacto",
  "regularClient": "Habitual",
  "searchForInjury": "Tipo de lesión ",
  "statusLead": "Cliente potencial",
  "statusRegularClient": "Habitual",
  "statusUser": "Miembro",
  "statusSystemUser": "Staff",
  "notificationSchedulingTitle": "Programar notificación",
  "notificationSchedulingHoursBefore": "horas antes del entrenamiento",
  "notificationSchedulingPopUpTitle": "Programar notificación",
  "notificationSchedulingPopUp1": "Enviar notificación",
  "notificationSchedulingPopUp2": "horas antes del entrenamiento ",
  "noMembershipFound": "No hemos podido encontrar una suscripción que coincida con la del usuario seleccionado",
  "returnRegularClient": "Volver a registro",
  "canNotChooseRegularClientSearch": "El cliente ya está registrado como cliente habitual",
  "canNotDeleteCheckInMember": "El cliente ya está registrado. Ya no es posible cancelar",
  "membershipHoldActiveCantRegisterToWorkout": "La suscripción del cliente está pausada. No es posible registrar.",
  "userBiDebts1": "Deuda pendiente",
  "userBiDebts2": "NIS",
  "regularClientMember": "Cliente habitual existente",
  "regular": "Cliente habitual",
  "regularClientSavingSpots": "Clases reservadas para clientes habituales",
  "regularClientSavingSpotsFollowingClasses": "Selecciona clases para clientes regulares",
  "userFk": "Usuario",
  "searchForUserFk": "Buscar por usuario",
  "transactionsReport": "Detalle de transacción",
  "transactionsReportNameInside": "Detalle de transacción",
  "numberOfPayment": "Número de pagos",
  "pushMessageLengthWarning": "¡Atención! Has excedido el número de caracteres aceptado por algunos dispositivos.",
  "deactivateTime": "Tiempo de desactivación",
  "leadLostReasons": "Razones de pérdida",
  "deleteWaringLeadLostReasons": "Estás a punto de eliminar una razón, ¿deseas continuar?",
  "addLeadLostReason": "Añadir razón de pérdida",
  "editLeadLostReason": "Editar razón de pérdida",
  "selectLostLeadReasons": "Seleccionar razón de pérdida ",
  "lostReason": "Razón de pérdida",
  "leadPhoneExists": "El número de teléfono ya existe en el sistema. Haz click aquí para cambiar al perfil existente ",
  "userPhoneExists": "El número de teléfono ya existe en el sistema. Haz click aquí para cambiar al perfil existente",
  "firstPaymentDifferent": "El plan de primer pago es diferente:",
  "equalPayments": "El plan de pago es igual",
  "moreItems": "Añadir artículo",
  "standByCancellationTimeHeader": "Inscrito a través de lista de espera",
  "standByAllowAutoMember": "Permitir al cliente darse de baja",
  "standByCancelWithoutCharge": "minutos después de inscribirse a través de lista de espera",
  "scheduleUserSwapHeader": "Cambio de clase",
  "scheduleUserSwapAllow": " Permitir al cliente registrarse en una nueva clase durante los",
  "scheduleUserSwapWithoutCharge": "minutos desde que canceló clase original",
  "classSwap": "Cambio de clase",
  "originalClass": "Clase original",
  "newClass": "Nueva clase",
  "swapTime": "Tiempo para cambio de clase",
  "financeDailyIncome": "Ingresos diarios",
  "financeDailyIncomeInfo": "Total de recibos diarios, incluido IVA",
  "financeReceiptFromStartOfMonth": "Total de recibos mensuales",
  "financeReceiptFromStartOfMonthInfo": "Suma de recibos diferidos y recibos emitidos durante este mes",
  "financeNoTaxIncomeStartOfMonth": " Ingresos sin IVA",
  "financeNoTaxIncomeStartOfMonthInfo": "Suma de facturas de IVA e Impuesto de tarjetas de crédito emitidas durante este mes",
  "financeTax": "IVA",
  "financeTaxInfo": "Cálculo del IVA de las facturas de impuestos y tarjetas de crédito emitidas durante este mes",
  "financeIncomeWithTax": "Ingresos mensuales, incluido IVA",
  "financeIncomeWithTaxInfo": "Cálculo de las facturas de impuestos y tarjetas de crédito emitidas durante este mes",
  "financeNextMonthExpectedPayment": "Ingresos previstos, incluído IVA, del próximo mes",
  "financeNextMonthExpectedPaymentInfo": "Esta cifra está basada en los recibos emitidos que se expedirán como facturas de impuestos durante el próximo mes. ¡Atención! Está basada en recibos diferidos y no incluye pagos recurrentes",
  "financeDailySummary": "Resumen diario",
  "financeIncomeByPaymentsDate": "Ingresos según fecha de vencimiento",
  "financeIncomeByTransactionDates": "Ingresos según fecha de transacción",
  "financeTransactionReports": "Informe de transacción",
  "financeReceipts": "Recibos",
  "financeReceiptsInfo": " Recibos generados hoy según tipo",
  "financePayments": "Reembolso",
  "financePaymentsInfo": "Facturas generadas hoy según tipo de recibos",
  "financeTotal": "Total",
  "financeReceiptType": "Tipo de recibo",
  "financeRivhitTypeCast1": "Cheque",
  "financeRivhitTypeCast2": "Efectivo",
  "financeRivhitTypeCast4": "Isracard",
  "financeRivhitTypeCast5": "Visa",
  "financeRivhitTypeCast6": "Otra tarjeta de crédito",
  "financeRivhitTypeCast7": "Tarjeta Diners",
  "financeRivhitTypeCast8": "American Express",
  "financeRivhitTypeCast9": "Transferencia bancaria",
  "financeRivhitTypeCast10": "PayPal",
  "financeRivhitTypeCast11": "MasterCard",
  "financeRivhitTypeCastOtherCC": "Otra tarjeta de crédito",
  "financeRivhitTypeCastTotal": "Total",
  "financeMoneyCurrency": "Euros",
  "show": "Mostrar",
  "receiptType": "Tipo de recibo",
  "receiptNumber": "Número de recibo",
  "productionDate": "Fecha de producción",
  "checkNumber": "Número de cheque",
  "bank": "Banco",
  "branchNumber": "Número de sucursal",
  "accountNumber": "Número de cuenta, o últimas 4 cifras",
  "customerName": "Nombre del cliente",
  "financeReceiptType1": "Recibo",
  "financeReceiptType2": "Recibo de factura de impuestos",
  "financeReceiptType3": "Recibos diferidos",
  "financeReceiptType4": "Recibos de crédito",
  "financeReceiptType16": "Recibo de crédito ",
  "financeReceiptType17": "Recibo de donación",
  "financeBank04": "יהב",
  "financeBank10": "לאומי",
  "financeBank11": "דיסקונט",
  "financeBank12": "פועלים",
  "financeBank13": "איגוד",
  "financeBank14": "אוצר החייל",
  "financeBank17": "מרכנתיל",
  "financeBank20": "טפחות מזרחי",
  "financeBank31": "הבינלאומי",
  "financeBank46": "מסד",
  "financeBank54": "ירושלים",
  "totalHours": "Total horas",
  "inMinutes": "Total minutos",
  "subTotal": "Total tiempo",
  "cancellationFine": " Penalizaciones por ausencia ",
  "chooseFineType": " Escoger penalización ",
  "shortenMembership": "Reducción del plan ",
  "blockRegistration": " Restricción de uso de la App ",
  "shortenMembershipExplain": " Una reducción de  ",
  "shortenMembershipExplainOnMember": " se aplicará al plan del cliente por cada ",
  "shortenMembershipExplainMissingPer": " ausencias por ",
  "shortenMembershipExplainWarning": "¡Atención! Reducir el plan del cliente puede resultar en la cancelación de futuras reservas",
  "cancellationFineCalcUpon": " Contar ausencias según:",
  "blockRegistrationExplain": " Bloquear el registro de la App por ",
  "blockRegistrationExplainOnMember": " después del número de ausencias mayor que  ",
  "blockRegistrationExplainMissingPer": " veces por ",
  "blockRegistrationExplainWarning": "- ¡Atención! Bloquear al cliente puede resultar en la cancelación de reservas durante los días bloqueados",
  "lateCancellation": "Ausente / Cancelación tardía",
  "youHaveToSelectCalcByCheckInOrLateCancellation": "Selecciona el método de cálculo de ausencias ",
  "membershipFine": " penalización ",
  "automaticAction": "Acción automática",
  "returnFromBlockRegistration": "Final del bloqueo de la App",
  "chargeAbsence": " Ausente",
  "passageBlockHeader": " Limitación de reentrada ",
  "passageBlockDoNotAllow": " No permitir reentrada durante",
  "passageBlockFromLastEnterenace": "minutos desde la última entrada",
  "customerIdentifier": "Identificación cliente ",
  "searchForCustomerIdentifier": "Buscar por identificación cliente",
  "showAbsentExpressionBy": "El indicador de ausencia será",
  "showTodayTrainingExpressionBy": "El indicador de asistencia será",
  "checkIn": "Check-in",
  "missingMembers": "Ausencia",
  "dashboardData": "Datos del tablero",
  "actions": "acciones",
  "markEnterenace": "Comprobación de entrada",
  "markEnterenaceNoChip": "¡Atención! Esto permite la entrada sin chip ",
  "chipEnterenace": "¿Con chip? ",
  "reportsMembershipActive": "Suscripción activa",
  "missingMembersReport_registration_1": "Mostrar clientes ausentes cuya última clase fue el",
  "missingMembersReport_registration_2": "y que no han reservado ninguna clase desde el",
  "missingMembersReport_check_in_1": "Mostrar clientes ausentes cuya última clase fue el",
  "missingMembersReport_check_in_2": "y no han asistido a ninguna clase desde el",
  "missingMembersReport_entrance_1": "Mostrar clientes ausentes cuya última entrada al club fue el",
  "missingMembersReport_entrance_2": "y que no han vuelto desde el",
  "creditBalance": "Balance de crédito",
  "debtOrBalance": "Balance / Deuda",
  "abortMembership": "Cancelar la suscripción - ",
  "aboutMembershipWithoutPriceChange": "actualización de precio, sin reembolso ni registro en contabilidad",
  "aboutMembershipAndCredit": "y da crédito al artículo según su precio",
  "aboutMembershipAndCreditNow": "Registrar en contabilidad y reembolsar al cliente ",
  "loadPaymentMethod": "Siguiente",
  "in": "en",
  "cancelDocumentToolTip": "Cancelación de documento",
  "showPDFToolTip": "Mostrar documento ",
  "sellingPrice": "Precio de venta",
  "cancelDocumentWarning": "Esto producirá un documento equilibrado de la misma cantidad que el documento seleccionado. Si decides cancelar la factura, se emitirá una factura de crédito. ¡Atención! Si decides cancelar el impuesto de la factura, recuerda cancelar el recibo de factura por separado. ¿Deseas continuar?",
  "cancelReceiptWarning": "Si decides cancelar el recibo, se emitirá una factura de la cantidad original y las siguientes facturas fiscales serán canceladas. ¡Atención!  Si el número de factura ya ha sido emitido, no use esta acción.",
  "editPrice": "Editar Precio",
  "itemValue": "valor",
  "showHolds": "Mostrar el total de días pausados",
  "items": "Productos",
  "itemType": "tipo de producto",
  "UserLogPriceOf": "El precio de",
  "changed": "ha sido cambiado",
  "UserLogCreditItemBalance": "Además, ha habido un reembolso de:",
  "sellingPriceToolTip": "El precio establecido en el momento de compra",
  "discountToolTip": "El descuento se deriva de la reducción del precio de venta respecto del precio de cotización",
  "paidToolTip": "El precio de venta menos la deuda",
  "debtOrBalanceToolTip": "Columna dinámica que muestra el saldo / deuda actual del producto",
  "itemValueToolTip": "La cantidad que se espera cobrar. En el caso de reembolsos, esta cantidad cambiará",
  "session": "Paquetes de sesiones",
  "UserLogCancelled": "cancelado",
  "onAmount": "por la suma de",
  "calls": "Llamadas",
  "callType": "Tipo de llamada",
  "callDuration": "Duración",
  "record": "Registro",
  "incoming": "Entrante",
  "outgoing": "Saliente",
  "communication": "Comunicación",
  "somethingWentWrongVoiceCenterMissingParams": "Faltan datos para hacer la llamada, por favor contacta con el servicio de atención",
  "memershipTypeWithRecurringPayment": "Plan de ventas recurrente",
  "recurringPaymentSettingTitle": "Ajustes de pago recurrentes",
  "recurringPaymentSettingPage": "Pagos recurrentes",
  "dateOfCreated": "Según fecha de creación",
  "recurringPaymentSettingDocInfo": "Tipo de recibo a emitir en el momento del cobro:",
  "recurringPaymentSettingChargeDayInfo": "Fecha de facturación mensual",
  "recurringPaymentSettingDocAutoActionInfo": "Selecciona la acción automática que se llevará a cabo en caso de que un cobro sea rechazado",
  "recurringPaymentSettingDebt": "En el momento de denegación, añadir como deuda",
  "recurringPaymentsWithoutAutoAction": "Ninguna acción",
  "recurringPaymentsAutoActionRestrictingUser": "Restringir registro",
  "recurringPaymentsAutoActionDeactivate": "Desactivate Usuario",
  "payNow": "A pagar ahora",
  "balanceCredits": "Gestionar saldos",
  "itemsForm": "Artículos",
  "balanceCreditsTitlePopup": "Gestionar saldos",
  "department": "Departamento",
  "departmentsTitle": "Gestionar departamentos",
  "beforeTextDepartmentsEdit": "Gestione mejor sus informes de sistema creando departamentos y asignando artículos a cada uno.",
  "popupAddNewDepartment": "Añadir nuevo departamento",
  "deleteWaringDepartment": "¿Seguro de que quieres eliminar este departamento?",
  "departmentDeletedFromYourBox": "El departamento ha sido eliminado ",
  "failedToDeleteDepartment": "El proceso de eliminación no se ha completado",
  "displayDepartmentsOnCheckInPopUpButtonLabel": "Herramienta de gestión de departamentos: activada",
  "displayDepartmentsOnCheckInPopUpButtonLabelOff": "Herramienta de gestión de departamentos: desactivada",
  "dailyClearing": "Liquidación diaria",
  "declines": "Denegaciones",
  "clearingThisMonth": "Liquidación - este mes",
  "expectedClearing": "Liquidación - prevista siguiente mes",
  "recurringPaymentsFailed": "Transacciones fallidas",
  "recurringPaymentsCharged": "Transacciones correctas",
  "recurringPaymentsActive": "Activo",
  "friendship": "Suscripción",
  "attempts": "Intentos",
  "multiDebit": "Cobro múltiple",
  "chargeRecurringPaymentWarning": "Esta acción supone cobro inmediato al cliente.",
  "debitToolTip": "Cobro múltiple",
  "debitSuccessful": "El cliente ha sido cobrado correctamente",
  "debitFailed": "Cobro fallido",
  "dailyClearingInfo": "Total de cobros - hoy",
  "declinesInfo": "Total de veces que el cobro ha sido fallido. Recuerda que se intentará cobrar de nuevo en horas nocturnas,",
  "clearingThisMonthInfo": "Total de cobros desde el principio de este mes",
  "expectedClearingInfo": "Cobros previstos para el próximo mes",
  "AutomaticActions": "Acciones automáticas",
  "AutomaticTasks": "Tareas automáticas",
  "when": "Cuando",
  "ReminderHourAutoAction": "Hora de recordatorio",
  "addAutomaticAction": "Añadir tarea automática",
  "addNewAutomaticActions": "Añadir nueva tarea automática",
  "createNewAutomaticActionsWhen": "Crear nueva tarea automática cuando:",
  "leadCreationAutomaticAction": "Creando nuevo cliente potencial ",
  "statusUpdateAutomaticAction": "Actualizando estado",
  "renewCoustmerAutomaticAction": "Renovando suscripción",
  "newCoustmerAutomaticAction": "Creando cliente",
  "leadConverstionAutomaticAction": "Convirtiendo cliente potencial",
  "immediateAutomaticAction": "Inmediatamente",
  "periodAutomaticAction": "Fecha de ejecución",
  "afterAutomaticAction": "Después",
  "membershipExpiredAutomaticAction": "Fin de la suscripción",
  "timeUnitAutomaticAction": "",
  "sessionsAutomaticAction": "Paquete de sesiones",
  "sessionsBeforeAutomaticAction": "sesiones antes de ",
  "RENEWautomaticAction": "Renovar suscripción",
  "CREATE_NEWautomaticAction": "Creando cliente",
  "CREATED_LEADautomaticAction": "Creando cliente potencial",
  "CONVERTED_TO_MEMBERautomaticAction": "Convirtiendo cliente potencial",
  "STATUS_UPDATEautomaticAction": "Actualizando estado",
  "DAYautomaticActionTable": "Días",
  "WEEKautomaticActionTable": "Semanas",
  "MONTHautomaticActionTable": "Meses",
  "afterAutomticActionTable": "Después",
  "beforeAutomaticActionTable": "Antes",
  "deleteAutoActionsSet": "¡Atención! Estás a punto de eliminar una tarea automática. ¿Deseas continuar?",
  "beforeMembershipEndAutomaticActionTable": "Antes del final de la suscripción",
  "executionDateAutoActions": "Fecha de ejecución",
  "bookedPercentage": "Tasa de ocupación",
  "searchByBookedPercentage": "Buscar según tasa de ocupación",
  "bookedPercentageToolTip": "Número de alumnos apuntadas dividido entre número de plazas de la clase",
  "searchForGender": "Buscar según género",
  "males": "Masculino",
  "females": "Femenino",
  "agesAverage": "Promedio de edad",
  "membershipStatus": "Estado de suscripción",
  "activeMemberWithFutureCancel": "Activo con cancelación futura",
  "externalConnections": "Conexiones externas",
  "externalConnectionsFacebook": "Clientes potenciales de Facebook",
  "loginWithFacebook": "Iniciar sesión con Facebook",
  "loginWithFacebookToolTip": "Iniciar sesión con Facebook",
  "unsubscribeWithFacebook": "Cerrar sesión con Facebook",
  "unsubscribeWithFacebookToolTip": "Cerrar sesión con Facebook",
  "socialMedia": "Redes sociales",
  "socialMediaSubtitle": "Redes sociales",
  "removeSocialMediaPage": "Dar de baja esta página de Arbox",
  "facebookConnectionCancelAreYouSure": "¿Estás seguro de que quieres cancelar tu sesión de Facebook?",
  "allPagesRemovedSuccessfully": "Te has dado de baja de todas las páginas con éxito",
  "chargeHistory": "Historial de facturación",
  "futureCharge": "Cobros futuros",
  "billingDate": "Fecha de facturación",
  "cardValidity": "Validez de la tarjeta",
  "areYouSureCloseRecurringPopup": "¡Guarda los cambios o no se llevarán a cabo!",
  "areYouSureRecurringEdit": "Comprueba los siguientes detalles",
  "chargeDate": "Fecha de facturación",
  "voucher": "Cupón",
  "recurringCharge": "Cobrado",
  "recurringFailed": "Fallido",
  "recurringCancelled": "Cancelado",
  "saveChanges": "Guardar cambios",
  "abortChanges": "Deshacer cambios",
  "restoreRecurringPayment": "Restablecer pagos ",
  "restoreRecurringPaymentWarning": "Esta acción cambiará la actividad de pago ",
  "deleteRecurringPaymentWarning": "ESta acción eliminará los pagos recurrentes y no se cobrará al cliente.",
  "recurringPaymentNoNext": "No hay ningún cobro futuro",
  "membershipCancelRecurringMethod": "Cancelando pago recurrente",
  "membershipCancelRecurringImmediately": "Deseo cancelar los pagos recurrentes inmediatamente",
  "membershipCancelRecurringInAFew": "Deseo cancelar los pagos recurrentes en",
  "cycles": "ciclos",
  "remaining": "restantes",
  "UserLogDecline": "Tarjeta rechazada",
  "UserLogCreditLast4Digits": "Últimas 4 cifras ",
  "UserLogInDate": "On",
  "UserLogDebtCreated": "Facturación creada",
  "UserLogFollowingDecline": "Debido a negativa de cobro",
  "UserLogSuccessfulChargeInAttempt": "Cobrado con éxito - número de intentos",
  "UserLogDebtClosed": "La deuda de ",
  "UserLogClosed": "cerrado",
  "UserLogAutoActionSetInActive": "Cambio de estado a No Activo debido a facturación rechazada",
  "UserLogAutoActionSetActive": "Cambio de estado a Activo debido a facturación correcta",
  "UserLogAutoActionSetRestricted": "Bloqueado por devolución",
  "UserLogAutoActionSetUnRestricted": "Desbloquear uso de la app después de cobro correcto ",
  "UserLogRetryTomorrow": "Otro intento de facturación se llevará a cabo mañana",
  "UserLogActionMade": "Acción acabada",
  "UserLogCancelRecurringPayments": "Cancelar pagos recurrentes para esta tarjeta ",
  "UserLogLastCharge": "Último cobro",
  "UserLogUpdateRecurringPaymentsDetailsDay": "Fecha de facturación editada una vez",
  "UserLogMultiUpdateRecurringPaymentsDetailsDay": "Fecha de facturación editada permanentemente",
  "UserLogAndAmount": "Y la cantidad del cobro",
  "UserLogMoreCyclesRemaining": "Quedan ciclos de pago",
   "english": "English",
   "turkish": "Türkçe",
   "hebrew": "עברית",
   "spanish": "Español",
   "arabic": "عربى",
   "greek": "Ελληνικά",
   "german": "Deutsche"
}